{
  "$schema": "http://json-schema.org/draft-04/schema#",
  "type": "object",
  "properties": {
    "response": {
      "type": "object",
      "additionalProperties": false,
      "properties": {
        "id": {
          "type": "string"
        },
        "identifier": {
          "type": "string"
        },
        "state": {
          "type": "string"
        },
        "title": {
          "type": "string"
        },
        "description": {
          "type": "null"
        },
        "machine_id": {
          "type": "integer"
        },
        "machine_name": {
          "type": "string"
        },
        "docker_command_id": {
          "type": ["integer", "null"]
        },
        "security_container_id": {
          "type": ["integer", "null"]
        },
        "repository_name": {
          "type": "string"
        },
        "created_at": {
          "type": "string"
        },
        "updated_at": {
          "type": "string"
        },
        "service_id": {
          "type": ["integer", "null"]
        },
        "service_name": {
          "type": ["string", "null"]
        },
        "type": {
          "type": "string"
        },
        "associated_requirements": {
          "type": "array"
        },
        "results": {
          "$ref": "results.json#/properties/response"
        }
      },
      "required": [
        "id",
        "identifier",
        "state",
        "title",
        "description",
        "machine_id",
        "machine_name",
        "docker_command_id",
        "security_container_id",
        "repository_name",
        "created_at",
        "updated_at",
        "associated_requirements",
        "results",
        "service_id",
        "service_name",
        "type"
      ]
    }
  },
  "required": [
    "response"
  ]
}
