{
  "$schema": "http://json-schema.org/draft-04/schema#",
  "type": "object",
  "properties": {
    "response": {
      "type": "array",
      "items": {
        "type": "object",
        "additionalProperties": false,
        "properties": {
          "id": {
            "type": "integer"
          },
          "public_key": {
            "type": "null"
          },
          "queue_name": {
            "type": "string"
          },
          "state": {
            "type": "string"
          },
          "last_heartbeat": {
            "type": "string"
          },
          "verified": {
            "type": "boolean"
          },
          "organization_id": {
            "type": "integer"
          },
          "key_signature": {
            "type": "string"
          },
          "public_file_encryption_key": {
            "type": "null"
          },
          "last_reported_version": {
            "type": ["null", "string"]
          },
          "latest_version": {
            "type": ["null", "string"]
          },
          "outdated": {
            "type": "boolean"
          }
        },
        "required": [
          "id",
          "public_key",
          "queue_name",
          "state",
          "last_heartbeat",
          "verified",
          "organization_id",
          "key_signature",
          "public_file_encryption_key",
          "last_reported_version",
          "latest_version",
          "outdated"
        ]
      }
    }
  },
  "required": [
    "response"
  ]
}
