{
  "$schema": "http://json-schema.org/draft-04/schema#",
  "type": "object",
  "properties": {
    "response": {
      "type": "object",
      "additionalProperties": false,
      "properties": {
        "assessments_summary": {
          "type": "object",
          "properties":  {
            "\d.+": {
              "type": "object",
              "additionalProperties": false,
              "properties": {
                "state_details": {
                  "type": ["null", "string"]
                },
                "created_at": {
                  "type": "string"
                },
                "state": {
                  "type": "string"
                }
              },
              "required": [
                "state_details",
                "created_at",
                "state"
              ]
            }
          }
        }
      },
      "required": [
        "assessments_summary"
      ]
    }
  },
  "required": [
    "response"
  ]
}
